﻿v -50 -50 50
v -50 -50 -50
v 50 -50 -50
v 50 -50 50
v -50 50 50
v 50 50 50
v 50 50 -50
v -50 50 -50
vn 0 -1 -0
vn 0 1 -0
vn 0 0 1
vn 1 0 -0
vn 0 0 -1
vn -1 0 -0
vt 1 0 -0
vt 1 1 -0
vt 0 1 -0
vt 0 0 -0
vt 0 0 1
vt 1 0 1
vt 1 1 1
vt 0 1 1
vt 0 -0 0
vt 1 -0 0
vt 1 1 0
vt 0 1 0
vt 0 -0 1
vt 1 -0 1
s off
f 1/1/1 2/2/1 3/3/1 4/4/1
f 5/5/2 6/6/2 7/7/2 8/8/2
f 1/9/3 4/10/3 6/11/3 5/12/3
f 4/13/4 3/14/4 7/7/4 6/8/4
f 3/13/5 2/14/5 8/7/5 7/8/5
f 2/9/6 1/10/6 5/11/6 8/12/6